{
  "id" : "ddb729ea-c6f7-3e5c-ab50-ab706ad242e8",
  "request" : {
    "url" : "/catalog.php",
    "method" : "GET"
  },
  "response" : {
    "status" : 200,
    "bodyFileName" : "body-catalog.php-HiKE9.txt",
    "headers" : {
      "Date" : "Mon, 17 Jun 2019 20:36:08 GMT",
      "Server" : "Apache/2",
      "X-Powered-By" : "PHP/5.6.33",
      "Vary" : "Accept-Encoding,User-Agent",
      "Keep-Alive" : "timeout=2, max=80",
      "Connection" : "Keep-Alive",
      "Content-Type" : "text/html; charset=UTF-8"
    }
  },
  "uuid" : "ddb729ea-c6f7-3e5c-ab50-ab706ad242e8"
}