{
  "id" : "2e9db0ad-585a-334a-a79c-ed7cf3b89c5c",
  "request" : {
    "url" : "/details.php?id=103",
    "method" : "GET"
  },
  "response" : {
    "status" : 200,
    "bodyFileName" : "body-details.php-5uJe7.txt",
    "headers" : {
      "Date" : "Mon, 17 Jun 2019 20:36:09 GMT",
      "Server" : "Apache/2",
      "X-Powered-By" : "PHP/5.6.33",
      "Vary" : "Accept-Encoding,User-Agent",
      "Keep-Alive" : "timeout=2, max=42",
      "Connection" : "Keep-Alive",
      "Content-Type" : "text/html; charset=UTF-8"
    }
  },
  "uuid" : "2e9db0ad-585a-334a-a79c-ed7cf3b89c5c"
}