{
  "id" : "627b0113-3bd6-34b4-8334-f80540199881",
  "request" : {
    "url" : "/details.php?id=301",
    "method" : "GET"
  },
  "response" : {
    "status" : 200,
    "bodyFileName" : "body-details.php-SQmzs.txt",
    "headers" : {
      "Date" : "Mon, 17 Jun 2019 20:36:07 GMT",
      "Server" : "Apache/2",
      "X-Powered-By" : "PHP/5.6.33",
      "Vary" : "Accept-Encoding,User-Agent",
      "Keep-Alive" : "timeout=2, max=94",
      "Connection" : "Keep-Alive",
      "Content-Type" : "text/html; charset=UTF-8"
    }
  },
  "uuid" : "627b0113-3bd6-34b4-8334-f80540199881"
}