{
  "id" : "a7ad234f-71dd-3476-9521-232ebfed0afc",
  "request" : {
    "url" : "/details.php?id=303",
    "method" : "GET"
  },
  "response" : {
    "status" : 200,
    "bodyFileName" : "body-details.php-AyS8B.txt",
    "headers" : {
      "Date" : "Tue, 18 Jun 2019 15:21:33 GMT",
      "Server" : "Apache/2",
      "X-Powered-By" : "PHP/5.6.33",
      "Vary" : "Accept-Encoding,User-Agent",
      "Keep-Alive" : "timeout=2, max=100",
      "Connection" : "Keep-Alive",
      "Content-Type" : "text/html; charset=UTF-8"
    }
  },
  "uuid" : "a7ad234f-71dd-3476-9521-232ebfed0afc"
}