<html>
<head>
	<title>Books</title>
	<link rel="stylesheet" href="css/style.css" type="text/css">
</head>
<body>

	<div class="header">

		<div class="wrapper">

			<h1 class="branding-title"><a href="catalog.php">Personal Media Library</a></h1>

					<ul class="nav">
                <li class="books on"><a href="catalog.php?cat=books">Books</a></li>

                <li class="movies "><a href="catalog.php?cat=movies">Movies</a></li>

                <li class="music "><a href="catalog.php?cat=music">Music</a></li>

                <li class="suggest "><a href="suggest.php">Suggest</a></li>
            </ul>

		</div>

	</div>

	<div id="content">
<div class="section catalog page">
  <div class="wrapper">
    <h1>
      <a href='catalog.php'>Full Catalog </a> &gt; Books  </h1>
    <ul class="items">
      <li><a href='details.php?id=102'><img src='img/media/clean_code.jpg ' alt='Clean Code: A Handbook of Agile Software Craftsmanship' /><p>View Details </p></a></li><li><a href='details.php?id=104'><img src='img/media/clean_coder.jpg ' alt='The Clean Coder: A Code of Conduct for Professional Programmers' /><p>View Details </p></a></li><li><a href='details.php?id=101'><img src='img/media/design_patterns.jpg ' alt='A Design Patterns: Elements of Reusable Object-Oriented Software' /><p>View Details </p></a></li><li><a href='details.php?id=103'><img src='img/media/refactoring.jpg ' alt='Refactoring: Improving the Design of Existing Code' /><p>View Details </p></a></li>    </ul>
  </div>
</div>
    </div> <!-- end content-->

    <div class="footer">

      <div class="wrapper">

        <ul>
          <li><a href="http://twitter.com/treehouse">Twitter</a></li>
          <li><a href="https://www.facebook.com/TeamTreehouse">Facebook</a></li>
        </ul>

        <p>&copy;2019 Personal Media Library</p>

      </div>

    </div>
    <script src="https://ajax.googleapis.com/ajax/libs/jquery/2.2.0/jquery.min.js"></script>
    <script type="text/javascript" src="js/script.js"></script>
  </body>
</html>
