<html>
<head>
	<title>The Lord of the Rings: The Fellowship of the Ring</title>
	<link rel="stylesheet" href="css/style.css" type="text/css">
</head>
<body>

	<div class="header">

		<div class="wrapper">

			<h1 class="branding-title"><a href="catalog.php">Personal Media Library</a></h1>

					<ul class="nav">
                <li class="books "><a href="catalog.php?cat=books">Books</a></li>

                <li class="movies "><a href="catalog.php?cat=movies">Movies</a></li>

                <li class="music "><a href="catalog.php?cat=music">Music</a></li>

                <li class="suggest on"><a href="suggest.php">Suggest</a></li>
            </ul>

		</div>

	</div>

	<div id="content">

<div class="section page">
  <div class="wrapper">

    <div class="breadcrumbs">
      <a href="catalog.php">Full Catalog</a>
      &gt; <a href="catalog.php?cat=Movies">movies</a>
      &gt; The Lord of the Rings: The Fellowship of the Ring    </div>

    <div class="media-picture">
      <span>
        <img src="img/media/lotr.jpg" alt="The Lord of the Rings: The Fellowship of the Ring" />
      </span>
    </div>

    <div class="media-details">
      <h1>The Lord of the Rings: The Fellowship of the Ring</h1>
      <table>
        <tr>
          <th>Category</th>
          <td>Movies</td>
        </tr>
        <tr>
          <th>Genre</th>
          <td>Drama</td>
        </tr>
        <tr>
          <th>Format</th>
          <td>Blu-ray</td>
        </tr>
        <tr>
          <th>Year</th>
          <td>2001</td>
        </tr>
                <tr>
          <th>Director</th>
          <td>Peter Jackson</td>
        </tr>
        <tr>
          <th>Writers</th>
          <td>J.R.R. Tolkien, Fran Walsh, Philippa Boyens, Peter Jackson</td>
        </tr>
        <tr>
          <th>Stars</th>
          <td>Ron Livingston, Jennifer Aniston, David Herman, Ajay Naidu, Diedrich Bader, Stephen Root</td>
        </tr>
              </table>
    </div>

  </div>
</div>



    </div> <!-- end content-->

    <div class="footer">

      <div class="wrapper">

        <ul>
          <li><a href="http://twitter.com/treehouse">Twitter</a></li>
          <li><a href="https://www.facebook.com/TeamTreehouse">Facebook</a></li>
        </ul>

        <p>&copy;2019 Personal Media Library</p>

      </div>

    </div>
    <script src="https://ajax.googleapis.com/ajax/libs/jquery/2.2.0/jquery.min.js"></script>
    <script type="text/javascript" src="js/script.js"></script>
  </body>
</html>
